…
Looks like it started to pick up in the 70s and really got going exponential after 2000.

I want to do the same thing, but look at how the use of different game mechanics has changed over the years. A game mechanic is how a game is played like rolling dice, drawing, or storytelling. Let's take a look at the `mechanic` column.


```r
board_games %>% select(mechanic)
```

```
## # A tibble: 10,532 x 1
##    mechanic                                                                
##    <chr>                                                                   
##  1 Area Control / Area Influence,Auction/Bidding,Dice Rolling,Hand Managem~
##  2 Trick-taking                                                            
##  3 Area Control / Area Influence,Hand Management,Set Collection,Tile Place~
##  4 Action Point Allowance System,Area Control / Area Influence,Auction/Bid~
##  5 Hand Management,Stock Holding,Tile Placement                            
##  6 Dice Rolling                                                            
##  7 Area Enclosure,Pattern Building,Pattern Recognition,Tile Placement      
##  8 Modular Board                                                           
##  9 Area Control / Area Influence,Tile Placement                            
## 10 Card Drafting,Hand Management,Point to Point Movement,Route/Network Bui~
## # ... with 10,522 more rows
```

It looks like a board game can have multiple mechanic categories as we see here seperated by commas. What I need to do to analyze this type of data is force each row to have just one category while maintaining some contextual information. In this case I just want to keep a hold of the `year` column. Before we start, I'm just curious, what game had the most combinations of game mechanics?


```r
board_games %>% 
  select(year_published, name, mechanic) %>% 
  mutate(m_count = str_count(mechanic, ",")) %>%
  arrange(desc(m_count))
```

```
## # A tibble: 10,532 x 4
##    year_published name            mechanic                          m_count
##             <dbl> <chr>           <chr>                               <int>
##  1           2015 504             Area Control / Area Influence,Ar~      17
##  2           2014 Emperor's New ~ Acting,Action Point Allowance Sy~      14
##  3           2013 Patchistory     Action Point Allowance System,Ar~      11
##  4           2013 City of Remnan~ Action Point Allowance System,Ar~      10
##  5           2016 Pyramid Arcade  Area Control / Area Influence,Be~      10
##  6           2011 Mage Knight Bo~ Card Drafting,Co-operative Play,~       9
##  7           2012 Exodus: Proxim~ Area Control / Area Influence,Ar~       9
##  8           2015 Chaosmos        Action Point Allowance System,Ca~       9
##  9           2014 Sons of Anarch~ Action Point Allowance System,Ar~       9
## 10           1985 Advanced Squad~ Auction/Bidding,Dice Rolling,Hex~       8
## # ... with 10,522 more rows
```
…
Now on to the data manipulation. I'll use `strsplit()` in a `mutate()` to serparate the categories and puts each of them into a nested tibble.


```r
mechanics_count <- 
  board_games %>% 
  select(year_published, mechanic) %>% 
  drop_na(mechanic) %>% 
  mutate(mechanic = strsplit(mechanic, ","))

mechanics_count
```

```
## # A tibble: 9,582 x 2
##    year_published mechanic 
##             <dbl> <list>   
##  1           1986 <chr [5]>
##  2           1981 <chr [1]>
##  3           1998 <chr [4]>
##  4           1992 <chr [4]>
##  5           1964 <chr [3]>
##  6           1989 <chr [1]>
##  7           1978 <chr [4]>
##  8           1993 <chr [1]>
##  9           1998 <chr [2]>
## 10           1998 <chr [4]>
## # ... with 9,572 more rows
```

To make this nested data useful, we simply use `unnest()`


```r
mechanics_count <- 
  mechanics_count %>% 
  unnest()

mechanics_count
```

```
## # A tibble: 23,950 x 2
##    year_published mechanic                     
##             <dbl> <chr>                        
##  1           1986 Area Control / Area Influence
##  2           1986 Auction/Bidding              
##  3           1986 Dice Rolling                 
##  4           1986 Hand Management              
##  5           1986 Simultaneous Action Selection
##  6           1981 Trick-taking                 
##  7           1998 Area Control / Area Influence
##  8           1998 Hand Management              
##  9           1998 Set Collection               
## 10           1998 Tile Placement               
## # ... with 23,940 more rows
```
…
